File_name	Sample	type_treatment
WTCHG_701682_70235191	PDC3691	PDC
WTCHG_701682_70255097	HV1	HV
WTCHG_701682_70265098	UC1	UC
WTCHG_701682_70275099	CC23126	PDC
WTCHG_701682_70285100	PDNC3128	PDNC
WTCHG_701682_70295101	DCC3188	DCC
WTCHG_701682_70305102	DCNC3723	DCNC
WTCHG_701682_70315103	HV2	HV
WTCHG_701682_70325104	UC2	UC
WTCHG_701682_70335105	CC83660	PDC
WTCHG_701682_70345106	PRISE2	PDNC
WTCHG_701682_70355107	LP11	DCC
WTCHG_701682_70365108	CC93662	DCNC
WTCHG_701682_70375109	HV3	HV
WTCHG_701682_70385110	UC4	UC
WTCHG_701682_70395111	PDC3592	PDC
WTCHG_701682_70405112	PRISE4	PDNC
WTCHG_701682_70415113	CC63237	DCC
WTCHG_701682_70425114	DCCVEDO3237	DCC
WTCHG_701682_70435115	HV4	HV
WTCHG_701682_70445116	UC5	UC
WTCHG_701682_70455117	PDC3131	PDC
WTCHG_701682_70465118	LP14	PDNC
WTCHG_701682_70475119	PRISE7	DCC
WTCHG_701682_70485120	PRISE1	DCNC
WTCHG_701682_70495121	HV5	HV
WTCHG_701682_70505122	UC6	UC
WTCHG_701682_70525124	HV93130	HV
WTCHG_701682_70535125	LP13	DCC
WTCHG_701682_70545126	PRISE3NC	DCNC
WTCHG_701682_70555127	HV6	HV
WTCHG_701682_70565128	UC7	UC
WTCHG_701682_70575129	PDC3642	PDC
WTCHG_701682_70585130	PRISE13	PDNC
WTCHG_701682_70595131	DCC4051	DCC
WTCHG_701682_70605132	PRISE12	DCNC
WTCHG_701682_70615133	HV10	HV
WTCHG_701682_70625134	UC8	UC
WTCHG_701682_70635135	LP15	PDC
WTCHG_701682_70645136	LP16	DCC
WTCHG_701682_70655137	HV11	HV
WTCHG_701682_70665138	IBDU	UC
WTCHG_701682_70675139	LP18	PDC
WTCHG_701682_70685140	HV153665	HV
WTCHG_701682_70695141	HV12	HV
WTCHG_701682_70705142	DCC3700	DCC
WTCHG_701682_70715143	HV13	HV
WTCHG_701682_70725144	HV173530	HV
WTCHG_701682_70735145	HV16	HV
WTCHG_701682_70745146	DCC4057	DCC
WTCHG_719266_71595039	DCC4054	DCC
WTCHG_719266_71605040	DCC4158	DCC
WTCHG_719266_71615041	DCNC4149	DCNC
WTCHG_719266_71575037	HV4166	HV
WTCHG_719266_71585038	PDC4157	PDC
WTCHG_719266_71625042	PRISE3	DCNC