Ensembl	Gene	"Gene description"	Evidence
ENSG00000203780	FANK1	"Fibronectin type III and ankyrin repeat domains 1"	"Evidence at protein level"
ENSG00000049768	FOXP3	"Forkhead box P3"	"Evidence at protein level"
ENSG00000163599	CTLA4	"Cytotoxic T-lymphocyte associated protein 4"	"Evidence at protein level"
ENSG00000118402	ELOVL4	"ELOVL fatty acid elongase 4"	"Evidence at protein level"
ENSG00000146250	PRSS35	"Serine protease 35"	"Evidence at protein level"
ENSG00000277586	NEFL	"Neurofilament light"	"Evidence at protein level"
ENSG00000174807	CD248	"CD248 molecule"	"Evidence at protein level"
ENSG00000134193	REG4	"Regenerating family member 4"	"Evidence at protein level"
ENSG00000158525	CPA5	"Carboxypeptidase A5"	"Evidence at protein level"
ENSG00000135960	EDAR	"Ectodysplasin A receptor"	"Evidence at protein level"
ENSG00000148848	ADAM12	"ADAM metallopeptidase domain 12"	"Evidence at protein level"
ENSG00000173114	LRRN3	"Leucine rich repeat neuronal 3"	"Evidence at transcript level"
ENSG00000162576	MXRA8	"Matrix remodeling associated 8"	"Evidence at protein level"
ENSG00000188389	PDCD1	"Programmed cell death 1"	"Evidence at protein level"
ENSG00000050165	DKK3	"Dickkopf WNT signaling pathway inhibitor 3"	"Evidence at protein level"
ENSG00000172673	THEMIS	"Thymocyte selection associated"	"Evidence at protein level"
ENSG00000157111	TMEM171	"Transmembrane protein 171"	"Evidence at protein level"
ENSG00000174348	PODN	Podocan	"Evidence at protein level"
ENSG00000175779	C15orf53	"Chromosome 15 open reading frame 53"	"Evidence at transcript level"
ENSG00000087250	MT3	"Metallothionein 3"	"Evidence at protein level"
ENSG00000183691	NOG	Noggin	"Evidence at protein level"
ENSG00000183395	PMCH	"Pro-melanin concentrating hormone"	"Evidence at protein level"
ENSG00000283361	CFAP97D2	"CFAP97 domain containing 2"	"Evidence at transcript level"
ENSG00000113319	RASGRF2	"Ras protein specific guanine nucleotide releasing factor 2"	"Evidence at protein level"
ENSG00000144290	SLC4A10	"Solute carrier family 4 member 10"	"Evidence at protein level"
ENSG00000119147	C2orf40	"Chromosome 2 open reading frame 40"	"Evidence at protein level"
ENSG00000102109	PCSK1N	"Proprotein convertase subtilisin/kexin type 1 inhibitor"	"Evidence at protein level"
ENSG00000262655	SPON1	"Spondin 1"	"Evidence at protein level"
ENSG00000005102	MEOX1	"Mesenchyme homeobox 1"	"Evidence at protein level"
ENSG00000143502	SUSD4	"Sushi domain containing 4"	"Evidence at protein level"
ENSG00000167286	CD3D	"CD3d molecule"	"Evidence at protein level"
ENSG00000172789	HOXC5	"Homeobox C5"	"Evidence at protein level"
ENSG00000167768	KRT1	"Keratin 1"	"Evidence at protein level"
ENSG00000102245	CD40LG	"CD40 ligand"	"Evidence at protein level"
ENSG00000163600	ICOS	"Inducible T cell costimulator"	"Evidence at protein level"
ENSG00000168824	NSG1	"Neuronal vesicle trafficking associated 1"	"Evidence at protein level"
ENSG00000162383	SLC1A7	"Solute carrier family 1 member 7"	"Evidence at protein level"
ENSG00000162630	B3GALT2	"Beta-1,3-galactosyltransferase 2"	"Evidence at protein level"
ENSG00000166105	GLB1L3	"Galactosidase beta 1 like 3"	"Evidence at protein level"
ENSG00000089692	LAG3	"Lymphocyte activating 3"	"Evidence at protein level"
ENSG00000196169	KIF19	"Kinesin family member 19"	"Evidence at protein level"
ENSG00000181234	TMEM132C	"Transmembrane protein 132C"	"Evidence at protein level"
ENSG00000154917	RAB6B	"RAB6B, member RAS oncogene family"	"Evidence at protein level"
ENSG00000013725	CD6	"CD6 molecule"	"Evidence at protein level"
ENSG00000141934	PLPP2	"Phospholipid phosphatase 2"	"Evidence at protein level"
ENSG00000143036	SLC44A3	"Solute carrier family 44 member 3"	"Evidence at protein level"
ENSG00000109255	NMU	"Neuromedin U"	"Evidence at protein level"
ENSG00000131459	GFPT2	"Glutamine-fructose-6-phosphate transaminase 2"	"Evidence at protein level"
ENSG00000074527	NTN4	"Netrin 4"	"Evidence at protein level"
ENSG00000170819	BFSP2	"Beaded filament structural protein 2"	"Evidence at protein level"
ENSG00000183813	CCR4	"C-C motif chemokine receptor 4"	"Evidence at protein level"
ENSG00000182010	RTKN2	"Rhotekin 2"	"Evidence at protein level"
ENSG00000172867	KRT2	"Keratin 2"	"Evidence at protein level"
ENSG00000129038	LOXL1	"Lysyl oxidase like 1"	"Evidence at protein level"
ENSG00000154764	WNT7A	"Wnt family member 7A"	"Evidence at protein level"
ENSG00000172005	MAL	"Mal, T cell differentiation protein"	"Evidence at protein level"
ENSG00000143365	RORC	"RAR related orphan receptor C"	"Evidence at protein level"
ENSG00000172348	RCAN2	"Regulator of calcineurin 2"	"Evidence at protein level"
ENSG00000157985	AGAP1	"ArfGAP with GTPase domain, ankyrin repeat and PH domain 1"	"Evidence at protein level"
ENSG00000204711	C9orf135	"Chromosome 9 open reading frame 135"	"Evidence at protein level"
ENSG00000129596	CDO1	"Cysteine dioxygenase type 1"	"Evidence at protein level"
ENSG00000133067	LGR6	"Leucine rich repeat containing G protein-coupled receptor 6"	"Evidence at protein level"
ENSG00000172116	CD8B	"CD8b molecule"	"Evidence at protein level"
ENSG00000101230	ISM1	"Isthmin 1"	"Evidence at protein level"
ENSG00000197702	PARVA	"Parvin alpha"	"Evidence at protein level"
ENSG00000167094	TTC16	"Tetratricopeptide repeat domain 16"	"Evidence at protein level"
ENSG00000109956	B3GAT1	"Beta-1,3-glucuronyltransferase 1"	"Evidence at protein level"
ENSG00000073712	FERMT2	"Fermitin family member 2"	"Evidence at protein level"
ENSG00000159208	CIART	"Circadian associated repressor of transcription"	"Evidence at protein level"
ENSG00000171956	FOXB1	"Forkhead box B1"	"Evidence at protein level"
ENSG00000160654	CD3G	"CD3g molecule"	"Evidence at protein level"
ENSG00000187017	ESPN	Espin	"Evidence at protein level"
ENSG00000152969	JAKMIP1	"Janus kinase and microtubule interacting protein 1"	"Evidence at protein level"
ENSG00000144152	FBLN7	"Fibulin 7"	"Evidence at protein level"
ENSG00000128656	CHN1	"Chimerin 1"	"Evidence at protein level"
ENSG00000206561	COLQ	"Collagen like tail subunit of asymmetric acetylcholinesterase"	"Evidence at protein level"
ENSG00000127377	CRYGN	"Crystallin gamma N"	"Evidence at transcript level"
ENSG00000037280	FLT4	"Fms related tyrosine kinase 4"	"Evidence at protein level"
ENSG00000162594	IL23R	"Interleukin 23 receptor"	"Evidence at protein level"
ENSG00000125462	C1orf61	"Chromosome 1 open reading frame 61"	"Evidence at transcript level"
ENSG00000053328	METTL24	"Methyltransferase like 24"	"Evidence at transcript level"
ENSG00000116983	HPCAL4	"Hippocalcin like 4"	"Evidence at protein level"
ENSG00000116690	PRG4	"Proteoglycan 4"	"Evidence at protein level"
ENSG00000179913	B3GNT3	"UDP-GlcNAc:betaGal beta-1,3-N-acetylglucosaminyltransferase 3"	"Evidence at protein level"
ENSG00000110448	CD5	"CD5 molecule"	"Evidence at protein level"
ENSG00000170624	SGCD	"Sarcoglycan delta"	"Evidence at protein level"
ENSG00000174015	SPERT	"Spermatid associated"	"Evidence at protein level"
ENSG00000164729	SLC35G3	"Solute carrier family 35 member G3"	"Evidence at transcript level"
ENSG00000179934	CCR8	"C-C motif chemokine receptor 8"	"Evidence at protein level"
ENSG00000087494	PTHLH	"Parathyroid hormone like hormone"	"Evidence at protein level"
ENSG00000101883	RHOXF1	"Rhox homeobox family member 1"	"Evidence at protein level"
ENSG00000106688	SLC1A1	"Solute carrier family 1 member 1"	"Evidence at protein level"
ENSG00000138152	BTBD16	"BTB domain containing 16"	"Evidence at protein level"
ENSG00000112186	CAP2	"Cyclase associated actin cytoskeleton regulatory protein 2"	"Evidence at protein level"
ENSG00000156510	HKDC1	"Hexokinase domain containing 1"	"Evidence at protein level"
ENSG00000055732	MCOLN3	"Mucolipin 3"	"Evidence at protein level"
ENSG00000156395	SORCS3	"Sortilin related VPS10 domain containing receptor 3"	"Evidence at protein level"
ENSG00000179148	ALOXE3	"Arachidonate lipoxygenase 3"	"Evidence at protein level"
ENSG00000154493	C10orf90	"Chromosome 10 open reading frame 90"	"Evidence at protein level"
ENSG00000204334	ERICH2	"Glutamate rich 2"	"Evidence at protein level"
ENSG00000139187	KLRG1	"Killer cell lectin like receptor G1"	"Evidence at protein level"
ENSG00000178257	PRM3	"Protamine 3"	"Evidence at protein level"
ENSG00000166922	SCG5	"Secretogranin V"	"Evidence at protein level"
ENSG00000000971	CFH	"Complement factor H"	"Evidence at protein level"
ENSG00000273049	AC012531.3		"Evidence at transcript level"
ENSG00000152495	CAMK4	"Calcium/calmodulin dependent protein kinase IV"	"Evidence at protein level"
ENSG00000169242	EFNA1	"Ephrin A1"	"Evidence at protein level"
ENSG00000102760	RGCC	"Regulator of cell cycle"	"Evidence at protein level"
ENSG00000092096	SLC22A17	"Solute carrier family 22 member 17"	"Evidence at protein level"
ENSG00000179242	CDH4	"Cadherin 4"	"Evidence at protein level"
ENSG00000111012	CYP27B1	"Cytochrome P450 family 27 subfamily B member 1"	"Evidence at protein level"
ENSG00000274588	DGKK	"Diacylglycerol kinase kappa"	"Evidence at protein level"
ENSG00000171224	FAM241B	"Family with sequence similarity 241 member B"	"Evidence at protein level"
ENSG00000160282	FTCD	"Formimidoyltransferase cyclodeaminase"	"Evidence at protein level"
ENSG00000108924	HLF	"HLF, PAR bZIP transcription factor"	"Evidence at protein level"
ENSG00000112183	RBM24	"RNA binding motif protein 24"	"Evidence at protein level"
ENSG00000070526	ST6GALNAC1	"ST6 N-acetylgalactosaminide alpha-2,6-sialyltransferase 1"	"Evidence at protein level"
ENSG00000138180	CEP55	"Centrosomal protein 55"	"Evidence at protein level"
ENSG00000129173	E2F8	"E2F transcription factor 8"	"Evidence at protein level"
ENSG00000120915	EPHX2	"Epoxide hydrolase 2"	"Evidence at protein level"
ENSG00000172031	EPHX4	"Epoxide hydrolase 4"	"Evidence at protein level"
ENSG00000155265	GOLGA7B	"Golgin A7 family member B"	"Evidence at protein level"
ENSG00000204866	IGFL2	"IGF like family member 2"	"Evidence at transcript level"
ENSG00000167916	KRT24	"Keratin 24"	"Evidence at protein level"
ENSG00000132698	RAB25	"RAB25, member RAS oncogene family"	"Evidence at protein level"
ENSG00000125084	WNT1	"Wnt family member 1"	"Evidence at protein level"
ENSG00000225556	C2CD4D	"C2 calcium dependent domain containing 4D"	"Evidence at protein level"
ENSG00000112782	CLIC5	"Chloride intracellular channel 5"	"Evidence at protein level"
ENSG00000130635	COL5A1	"Collagen type V alpha 1 chain"	"Evidence at protein level"
ENSG00000148468	FAM171A1	"Family with sequence similarity 171 member A1"	"Evidence at protein level"
ENSG00000269433	OPN1MW3	"Opsin 1, medium wave sensitive 3"	"Evidence at transcript level"
ENSG00000005513	SOX8	"SRY-box 8"	"Evidence at protein level"
ENSG00000118156	ZNF541	"Zinc finger protein 541"	"Evidence at protein level"
ENSG00000136848	DAB2IP	"DAB2 interacting protein"	"Evidence at protein level"
ENSG00000124205	EDN3	"Endothelin 3"	"Evidence at protein level"
ENSG00000261150	EPPK1	"Epiplakin 1"	"Evidence at protein level"
ENSG00000265817	FSBP	"Fibrinogen silencer binding protein"	"Evidence at protein level"
ENSG00000176402	GJC3	"Gap junction protein gamma 3"	"Evidence at protein level"
ENSG00000138684	IL21	"Interleukin 21"	"Evidence at protein level"
ENSG00000075043	KCNQ2	"Potassium voltage-gated channel subfamily Q member 2"	"Evidence at protein level"
ENSG00000123454	DBH	"Dopamine beta-hydroxylase"	"Evidence at protein level"
ENSG00000188816	HMX2	"H6 family homeobox 2"	"Evidence at protein level"
ENSG00000167618	LAIR2	"Leukocyte associated immunoglobulin like receptor 2"	"Evidence at protein level"
ENSG00000183695	MRGPRX2	"MAS related GPR family member X2"	"Evidence at protein level"
ENSG00000129422	MTUS1	"Microtubule associated scaffold protein 1"	"Evidence at protein level"
ENSG00000170485	NPAS2	"Neuronal PAS domain protein 2"	"Evidence at protein level"
ENSG00000110811	P3H3	"Prolyl 3-hydroxylase 3"	"Evidence at protein level"
ENSG00000222028	PSMB11	"Proteasome subunit beta 11"	"Evidence at protein level"
ENSG00000115705	TPO	"Thyroid peroxidase"	"Evidence at protein level"
ENSG00000100346	CACNA1I	"Calcium voltage-gated channel subunit alpha1 I"	"Evidence at protein level"
ENSG00000153563	CD8A	"CD8a molecule"	"Evidence at protein level"
ENSG00000168772	CXXC4	"CXXC finger protein 4"	"Evidence at transcript level"
ENSG00000019186	CYP24A1	"Cytochrome P450 family 24 subfamily A member 1"	"Evidence at protein level"
ENSG00000135547	HEY2	"Hes related family bHLH transcription factor with YRPW motif 2"	"Evidence at protein level"
ENSG00000117594	HSD11B1	"Hydroxysteroid 11-beta dehydrogenase 1"	"Evidence at protein level"
ENSG00000155980	KIF5A	"Kinesin family member 5A"	"Evidence at protein level"
ENSG00000170486	KRT72	"Keratin 72"	"Evidence at protein level"
ENSG00000169789	PRY	"PTPN13-like, Y-linked"	"Evidence at protein level"
ENSG00000100739	BDKRB1	"Bradykinin receptor B1"	"Evidence at protein level"
ENSG00000177990	DPY19L2	"Dpy-19 like 2"	"Evidence at protein level"
ENSG00000104413	ESRP1	"Epithelial splicing regulatory protein 1"	"Evidence at protein level"
ENSG00000109471	IL2	"Interleukin 2"	"Evidence at protein level"
ENSG00000198807	PAX9	"Paired box 9"	"Evidence at protein level"
ENSG00000177519	RPRM	"Reprimo, TP53 dependent G2 arrest mediator homolog"	"Evidence at protein level"
ENSG00000124564	SLC17A3	"Solute carrier family 17 member 3"	"Evidence at protein level"
ENSG00000171478	SPACA5B	"Sperm acrosome associated 5B"	"Evidence at protein level"
ENSG00000145107	TM4SF19	"Transmembrane 4 L six family member 19"	"Evidence at transcript level"
ENSG00000187135	VSTM2B	"V-set and transmembrane domain containing 2B"	"Evidence at protein level"
ENSG00000156219	ART3	"ADP-ribosyltransferase 3"	"Evidence at protein level"
ENSG00000075673	ATP12A	"ATPase H+/K+ transporting non-gastric alpha2 subunit"	"Evidence at protein level"
ENSG00000137707	BTG4	"BTG anti-proliferation factor 4"	"Evidence at protein level"
ENSG00000138135	CH25H	"Cholesterol 25-hydroxylase"	"Evidence at protein level"
ENSG00000080573	COL5A3	"Collagen type V alpha 3 chain"	"Evidence at protein level"
ENSG00000142156	COL6A1	"Collagen type VI alpha 1 chain"	"Evidence at protein level"
ENSG00000120875	DUSP4	"Dual specificity phosphatase 4"	"Evidence at protein level"
ENSG00000174946	GPR171	"G protein-coupled receptor 171"	"Evidence at protein level"
ENSG00000080854	IGSF9B	"Immunoglobulin superfamily member 9B"	"Evidence at protein level"
ENSG00000135631	RAB11FIP5	"RAB11 family interacting protein 5"	"Evidence at protein level"
ENSG00000010319	SEMA3G	"Semaphorin 3G"	"Evidence at protein level"
ENSG00000106686	SPATA6L	"Spermatogenesis associated 6 like"	"Evidence at protein level"
ENSG00000138741	TRPC3	"Transient receptor potential cation channel subfamily C member 3"	"Evidence at protein level"
ENSG00000104723	TUSC3	"Tumor suppressor candidate 3"	"Evidence at protein level"
ENSG00000176083	ZNF683	"Zinc finger protein 683"	"Evidence at protein level"
ENSG00000163017	ACTG2	"Actin, gamma 2, smooth muscle, enteric"	"Evidence at protein level"
ENSG00000135773	CAPN9	"Calpain 9"	"Evidence at protein level"
ENSG00000275302	CCL4	"C-C motif chemokine ligand 4"	"Evidence at protein level"
ENSG00000147432	CHRNB3	"Cholinergic receptor nicotinic beta 3 subunit"	"Evidence at protein level"
ENSG00000160161	CILP2	"Cartilage intermediate layer protein 2"	"Evidence at protein level"
ENSG00000057593	F7	"Coagulation factor VII"	"Evidence at protein level"
ENSG00000110328	GALNT18	"Polypeptide N-acetylgalactosaminyltransferase 18"	"Evidence at protein level"
ENSG00000172020	GAP43	"Growth associated protein 43"	"Evidence at protein level"
ENSG00000137960	GIPC2	"GIPC PDZ domain containing family member 2"	"Evidence at protein level"
ENSG00000133937	GSC	"Goosecoid homeobox"	"Evidence at protein level"
ENSG00000081818	PCDHB4	"Protocadherin beta 4"	"Evidence at transcript level"
ENSG00000184905	TCEAL2	"Transcription elongation factor A like 2"	"Evidence at protein level"
ENSG00000154096	THY1	"Thy-1 cell surface antigen"	"Evidence at protein level"
ENSG00000181585	TMIE	"Transmembrane inner ear"	"Evidence at protein level"
ENSG00000186854	TRABD2A	"TraB domain containing 2A"	"Evidence at protein level"
ENSG00000162692	VCAM1	"Vascular cell adhesion molecule 1"	"Evidence at protein level"
ENSG00000169884	WNT10B	"Wnt family member 10B"	"Evidence at protein level"
ENSG00000284684	AC092442.1		"Evidence at transcript level"
ENSG00000165272	AQP3	"Aquaporin 3 (Gill blood group)"	"Evidence at protein level"
ENSG00000115163	CENPA	"Centromere protein A"	"Evidence at protein level"
ENSG00000109472	CPE	"Carboxypeptidase E"	"Evidence at protein level"
ENSG00000115423	DNAH6	"Dynein axonemal heavy chain 6"	"Evidence at protein level"
ENSG00000177294	FBXO39	"F-box protein 39"	"Evidence at transcript level"
ENSG00000266524	GDF10	"Growth differentiation factor 10"	"Evidence at protein level"
ENSG00000165996	HACD1	"3-hydroxyacyl-CoA dehydratase 1"	"Evidence at protein level"
ENSG00000125551	PLGLB2	"Plasminogen-like B2"	"Evidence at transcript level"
ENSG00000049769	PPP1R3F	"Protein phosphatase 1 regulatory subunit 3F"	"Evidence at protein level"
ENSG00000168917	SLC35G2	"Solute carrier family 35 member G2"	"Evidence at protein level"
ENSG00000165349	SLC7A3	"Solute carrier family 7 member 3"	"Evidence at protein level"
ENSG00000146242	TPBG	"Trophoblast glycoprotein"	"Evidence at protein level"
ENSG00000165269	AQP7	"Aquaporin 7"	"Evidence at protein level"
ENSG00000139537	CCDC65	"Coiled-coil domain containing 65"	"Evidence at protein level"
ENSG00000254126	CD8B2	"CD8b2 molecule"	"Evidence at transcript level"
ENSG00000176177	ENTHD1	"ENTH domain containing 1"	"Evidence at protein level"
ENSG00000164270	HTR4	"5-hydroxytryptamine receptor 4"	"Evidence at protein level"
ENSG00000136694	IL36A	"Interleukin 36 alpha"	"Evidence at protein level"
ENSG00000186049	KRT73	"Keratin 73"	"Evidence at protein level"
ENSG00000196156	KRTAP4-3	"Keratin associated protein 4-3"	"Evidence at protein level"
ENSG00000166961	MS4A15	"Membrane spanning 4-domains A15"	"Evidence at transcript level"
ENSG00000091129	NRCAM	"Neuronal cell adhesion molecule"	"Evidence at protein level"
ENSG00000183310	OR2T34	"Olfactory receptor family 2 subfamily T member 34"	"Evidence at transcript level"
ENSG00000248405	PRR5-ARHGAP8	"PRR5-ARHGAP8 readthrough"	"Evidence at transcript level"
ENSG00000123453	SARDH	"Sarcosine dehydrogenase"	"Evidence at protein level"
ENSG00000182310	SPACA6	"Sperm acrosome associated 6"	"Evidence at protein level"
ENSG00000160185	UBASH3A	"Ubiquitin associated and SH3 domain containing A"	"Evidence at protein level"
ENSG00000206077	ZDHHC11B	"Zinc finger DHHC-type containing 11B"	"Evidence at protein level"
ENSG00000114948	ADAM23	"ADAM metallopeptidase domain 23"	"Evidence at protein level"
ENSG00000180801	ARSJ	"Arylsulfatase family member J"	"Evidence at protein level"
ENSG00000127152	BCL11B	"B cell CLL/lymphoma 11B"	"Evidence at protein level"
ENSG00000204347	BTBD17	"BTB domain containing 17"	"Evidence at protein level"
ENSG00000130643	CALY	"Calcyon neuron specific vesicular protein"	"Evidence at protein level"
ENSG00000142173	COL6A2	"Collagen type VI alpha 2 chain"	"Evidence at protein level"
ENSG00000100053	CRYBB3	"Crystallin beta B3"	"Evidence at protein level"
ENSG00000149557	FEZ1	"Fasciculation and elongation protein zeta 1"	"Evidence at protein level"
ENSG00000189283	FHIT	"Fragile histidine triad"	"Evidence at protein level"
ENSG00000087258	GNAO1	"G protein subunit alpha o1"	"Evidence at protein level"
ENSG00000172987	HPSE2	"Heparanase 2 (inactive)"	"Evidence at protein level"
ENSG00000158748	HTR6	"5-hydroxytryptamine receptor 6"	"Evidence at protein level"
ENSG00000108852	MPP2	"Membrane palmitoylated protein 2"	"Evidence at protein level"
ENSG00000124479	NDP	"NDP, norrin cystine knot growth factor"	"Evidence at protein level"
ENSG00000163531	NFASC	Neurofascin	"Evidence at protein level"
ENSG00000148053	NTRK2	"Neurotrophic receptor tyrosine kinase 2"	"Evidence at protein level"
ENSG00000074590	NUAK1	"NUAK family kinase 1"	"Evidence at protein level"
ENSG00000158639	PAGE5	"PAGE family member 5"	"Evidence at protein level"
ENSG00000105717	PBX4	"PBX homeobox 4"	"Evidence at protein level"
ENSG00000254221	PCDHGB1	"Protocadherin gamma subfamily B, 1"	"Evidence at transcript level"
ENSG00000067177	PHKA1	"Phosphorylase kinase regulatory subunit alpha 1"	"Evidence at protein level"
ENSG00000169807	PRY2	"PTPN13-like, Y-linked 2"	"Evidence at protein level"
ENSG00000092377	TBL1Y	"Transducin beta like 1 Y-linked"	"Evidence at protein level"
ENSG00000145850	TIMD4	"T cell immunoglobulin and mucin domain containing 4"	"Evidence at protein level"
ENSG00000163631	ALB	Albumin	"Evidence at protein level"
ENSG00000152611	CAPSL	"Calcyphosine like"	"Evidence at protein level"
ENSG00000145920	CPLX2	"Complexin 2"	"Evidence at protein level"
ENSG00000155011	DKK2	"Dickkopf WNT signaling pathway inhibitor 2"	"Evidence at protein level"
ENSG00000197653	DNAH10	"Dynein axonemal heavy chain 10"	"Evidence at protein level"
ENSG00000170074	FAM153A	"Family with sequence similarity 153 member A"	"Evidence at transcript level"
ENSG00000164749	HNF4G	"Hepatocyte nuclear factor 4 gamma"	"Evidence at protein level"
ENSG00000123411	IKZF4	"IKAROS family zinc finger 4"	"Evidence at protein level"
ENSG00000016402	IL20RA	"Interleukin 20 receptor subunit alpha"	"Evidence at protein level"
ENSG00000137825	ITPKA	"Inositol-trisphosphate 3-kinase A"	"Evidence at protein level"
ENSG00000130294	KIF1A	"Kinesin family member 1A"	"Evidence at protein level"
ENSG00000274749	KRTAP7-1	"Keratin associated protein 7-1 (gene/pseudogene)"	"Evidence at protein level"
ENSG00000179564	LSMEM2	"Leucine rich single-pass membrane protein 2"	"Evidence at protein level"
ENSG00000205693	MANSC4	"MANSC domain containing 4"	"Evidence at transcript level"
ENSG00000107130	NCS1	"Neuronal calcium sensor 1"	"Evidence at protein level"
ENSG00000186943	OR13C8	"Olfactory receptor family 13 subfamily C member 8"	"Evidence at transcript level"
ENSG00000237388	OR4A47	"Olfactory receptor family 4 subfamily A member 47"	"Evidence at transcript level"
ENSG00000189184	PCDH18	"Protocadherin 18"	"Evidence at protein level"
ENSG00000107018	RLN1	"Relaxin 1"	"Evidence at protein level"
ENSG00000036672	USP2	"Ubiquitin specific peptidase 2"	"Evidence at protein level"
ENSG00000231824	AKAIN1	"A-kinase anchor inhibitor 1"	"Evidence at protein level"
ENSG00000132932	ATP8A2	"ATPase phospholipid transporting 8A2"	"Evidence at protein level"
ENSG00000163217	BMP10	"Bone morphogenetic protein 10"	"Evidence at protein level"
ENSG00000152430	BOLL	"Boule homolog, RNA binding protein"	"Evidence at protein level"
ENSG00000160401	CFAP157	"Cilia and flagella associated protein 157"	"Evidence at protein level"
ENSG00000140254	DUOXA1	"Dual oxidase maturation factor 1"	"Evidence at protein level"
ENSG00000188859	FAM78B	"Family with sequence similarity 78 member B"	"Evidence at transcript level"
ENSG00000101311	FERMT1	"Fermitin family member 1"	"Evidence at protein level"
ENSG00000102466	FGF14	"Fibroblast growth factor 14"	"Evidence at protein level"
ENSG00000174567	GOLT1A	"Golgi transport 1A"	"Evidence at protein level"
ENSG00000137080	IFNA21	"Interferon alpha 21"	"Evidence at protein level"
ENSG00000124449	IRGC	"Immunity related GTPase cinema"	"Evidence at protein level"
ENSG00000161849	KRT84	"Keratin 84"	"Evidence at protein level"
ENSG00000104826	LHB	"Luteinizing hormone beta polypeptide"	"Evidence at protein level"
ENSG00000178053	MLF1	"Myeloid leukemia factor 1"	"Evidence at protein level"
ENSG00000104722	NEFM	"Neurofilament medium"	"Evidence at protein level"
ENSG00000119919	NKX2-3	"NK2 homeobox 3"	"Evidence at protein level"
ENSG00000172818	OVOL1	"Ovo like transcriptional repressor 1"	"Evidence at protein level"
ENSG00000100311	PDGFB	"Platelet derived growth factor subunit B"	"Evidence at protein level"
ENSG00000112238	PRDM13	"PR/SET domain 13"	"Evidence at transcript level"
ENSG00000204314	PRRT1	"Proline rich transmembrane protein 1"	"Evidence at protein level"
ENSG00000126838	PZP	"PZP, alpha-2-macroglobulin like"	"Evidence at protein level"
ENSG00000185304	RGPD2	"RANBP2-like and GRIP domain containing 2"	"Evidence at protein level"
ENSG00000131183	SLC34A1	"Solute carrier family 34 member 1"	"Evidence at protein level"
ENSG00000179256	SMCO3	"Single-pass membrane protein with coiled-coil domains 3"	"Evidence at protein level"
ENSG00000050730	TNIP3	"TNFAIP3 interacting protein 3"	"Evidence at protein level"
ENSG00000154263	ABCA10	"ATP binding cassette subfamily A member 10"	"Evidence at transcript level"
ENSG00000148671	ADIRF	"Adipogenesis regulatory factor"	"Evidence at protein level"
ENSG00000167311	ART5	"ADP-ribosyltransferase 5"	"Evidence at protein level"
ENSG00000215595	C20orf202	"Chromosome 20 open reading frame 202"	"Evidence at transcript level"
ENSG00000158966	CACHD1	"Cache domain containing 1"	"Evidence at transcript level"
ENSG00000142973	CYP4B1	"Cytochrome P450 family 4 subfamily B member 1"	"Evidence at protein level"
ENSG00000170967	DDI1	"DNA damage inducible 1 homolog 1"	"Evidence at protein level"
ENSG00000065833	ME1	"Malic enzyme 1"	"Evidence at protein level"
ENSG00000173376	NDNF	"Neuron derived neurotrophic factor"	"Evidence at protein level"
ENSG00000184613	NELL2	"Neural EGFL like 2"	"Evidence at protein level"
ENSG00000185551	NR2F2	"Nuclear receptor subfamily 2 group F member 2"	"Evidence at protein level"
ENSG00000197444	OGDHL	"Oxoglutarate dehydrogenase like"	"Evidence at protein level"
ENSG00000131831	RAI2	"Retinoic acid induced 2"	"Evidence at protein level"
ENSG00000185272	RBM11	"RNA binding motif protein 11"	"Evidence at protein level"
ENSG00000145248	SLC10A4	"Solute carrier family 10 member 4"	"Evidence at protein level"
ENSG00000147100	SLC16A2	"Solute carrier family 16 member 2"	"Evidence at protein level"
ENSG00000181847	TIGIT	"T cell immunoreceptor with Ig and ITIM domains"	"Evidence at protein level"
ENSG00000165152	TMEM246	"Transmembrane protein 246"	"Evidence at protein level"
ENSG00000175877	TMEM270	"Transmembrane protein 270"	"Evidence at protein level"
ENSG00000221926	TRIM16	"Tripartite motif containing 16"	"Evidence at protein level"
ENSG00000205221	VIT	Vitrin	"Evidence at protein level"
ENSG00000196421	C20orf204	"Chromosome 20 open reading frame 204"	"Evidence at transcript level"
ENSG00000131686	CA6	"Carbonic anhydrase 6"	"Evidence at protein level"
ENSG00000115009	CCL20	"C-C motif chemokine ligand 20"	"Evidence at protein level"
ENSG00000197635	DPP4	"Dipeptidyl peptidase 4"	"Evidence at protein level"
ENSG00000137441	FGFBP2	"Fibroblast growth factor binding protein 2"	"Evidence at protein level"
ENSG00000170608	FOXA3	"Forkhead box A3"	"Evidence at protein level"
ENSG00000125675	GRIA3	"Glutamate ionotropic receptor AMPA type subunit 3"	"Evidence at protein level"
ENSG00000111536	IL26	"Interleukin 26"	"Evidence at protein level"
ENSG00000102271	KLHL4	"Kelch like family member 4"	"Evidence at protein level"
ENSG00000170484	KRT74	"Keratin 74"	"Evidence at protein level"
ENSG00000180611	MB21D2	"Mab-21 domain containing 2"	"Evidence at protein level"
ENSG00000041515	MYO16	"Myosin XVI"	"Evidence at protein level"
ENSG00000101004	NINL	"Ninein like"	"Evidence at protein level"
ENSG00000169992	NLGN2	"Neuroligin 2"	"Evidence at protein level"
ENSG00000113248	PCDHB15	"Protocadherin beta 15"	"Evidence at protein level"
ENSG00000197241	SLC2A7	"Solute carrier family 2 member 7"	"Evidence at transcript level"
ENSG00000278195	SSTR3	"Somatostatin receptor 3"	"Evidence at protein level"
ENSG00000125355	TMEM255A	"Transmembrane protein 255A"	"Evidence at transcript level"
ENSG00000215788	TNFRSF25	"TNF receptor superfamily member 25"	"Evidence at protein level"
ENSG00000141161	UNC45B	"Unc-45 myosin chaperone B"	"Evidence at protein level"
ENSG00000176428	VPS37D	"VPS37D, ESCRT-I subunit"	"Evidence at protein level"
ENSG00000249209	AP000311.1		"Evidence at protein level"
ENSG00000101197	BIRC7	"Baculoviral IAP repeat containing 7"	"Evidence at protein level"
ENSG00000167535	CACNB3	"Calcium voltage-gated channel auxiliary subunit beta 3"	"Evidence at protein level"
ENSG00000138115	CYP2C8	"Cytochrome P450 family 2 subfamily C member 8"	"Evidence at protein level"
ENSG00000101210	EEF1A2	"Eukaryotic translation elongation factor 1 alpha 2"	"Evidence at protein level"
ENSG00000146904	EPHA1	"EPH receptor A1"	"Evidence at protein level"
ENSG00000135472	FAIM2	"Fas apoptotic inhibitory molecule 2"	"Evidence at protein level"
ENSG00000127585	FBXL16	"F-box and leucine rich repeat protein 16"	"Evidence at protein level"
ENSG00000129654	FOXJ1	"Forkhead box J1"	"Evidence at protein level"
ENSG00000179855	GIPC3	"GIPC PDZ domain containing family member 3"	"Evidence at protein level"
ENSG00000100351	GRAP2	"GRB2-related adaptor protein 2"	"Evidence at protein level"
ENSG00000143341	HMCN1	"Hemicentin 1"	"Evidence at protein level"
ENSG00000008517	IL32	"Interleukin 32"	"Evidence at protein level"
ENSG00000171033	PKIA	"CAMP-dependent protein kinase inhibitor alpha"	"Evidence at protein level"
ENSG00000040608	RTN4R	"Reticulon 4 receptor"	"Evidence at protein level"
ENSG00000101298	SNPH	Syntaphilin	"Evidence at protein level"
ENSG00000284969	AL049629.2	"CD59 glycoprotein "	"Evidence at protein level"
ENSG00000154645	CHODL	Chondrolectin	"Evidence at protein level"
ENSG00000147434	CHRNA6	"Cholinergic receptor nicotinic alpha 6 subunit"	"Evidence at protein level"
ENSG00000134765	DSC1	"Desmocollin 1"	"Evidence at protein level"
ENSG00000273604	EPOP	"Elongin BC and polycomb repressive complex 2 associated protein"	"Evidence at protein level"
ENSG00000165591	FAAH2	"Fatty acid amide hydrolase 2"	"Evidence at protein level"
ENSG00000111713	GYS2	"Glycogen synthase 2"	"Evidence at protein level"
ENSG00000100450	GZMH	"Granzyme H"	"Evidence at protein level"
ENSG00000188266	HYKK	"Hydroxylysine kinase"	"Evidence at protein level"
ENSG00000003147	ICA1	"Islet cell autoantigen 1"	"Evidence at protein level"
ENSG00000171855	IFNB1	"Interferon beta 1"	"Evidence at protein level"
ENSG00000177301	KCNA2	"Potassium voltage-gated channel subfamily A member 2"	"Evidence at protein level"
ENSG00000164344	KLKB1	"Kallikrein B1"	"Evidence at protein level"
ENSG00000105370	LIM2	"Lens intrinsic membrane protein 2"	"Evidence at protein level"
ENSG00000175556	LONRF3	"LON peptidase N-terminal domain and ring finger 3"	"Evidence at protein level"
ENSG00000105613	MAST1	"Microtubule associated serine/threonine kinase 1"	"Evidence at protein level"
ENSG00000053524	MCF2L2	"MCF.2 cell line derived transforming sequence-like 2"	"Evidence at protein level"
ENSG00000133422	MORC2	"MORC family CW-type zinc finger 2"	"Evidence at protein level"
ENSG00000106809	OGN	Osteoglycin	"Evidence at protein level"
ENSG00000100558	PLEK2	"Pleckstrin 2"	"Evidence at protein level"
ENSG00000102934	PLLP	Plasmolipin	"Evidence at protein level"
ENSG00000185920	PTCH1	"Patched 1"	"Evidence at protein level"
ENSG00000179580	RNF151	"Ring finger protein 151"	"Evidence at protein level"
ENSG00000180739	S1PR5	"Sphingosine-1-phosphate receptor 5"	"Evidence at protein level"
ENSG00000100003	SEC14L2	"SEC14 like lipid binding 2"	"Evidence at protein level"
ENSG00000107742	SPOCK2	"SPARC/osteonectin, cwcv and kazal like domains proteoglycan 2"	"Evidence at protein level"
ENSG00000182253	SYNM	Synemin	"Evidence at protein level"
ENSG00000127362	TAS2R3	"Taste 2 receptor member 3"	"Evidence at transcript level"
ENSG00000260001	TGFBR3L	"Transforming growth factor beta receptor 3 like"	"Evidence at protein level"
ENSG00000203756	TMEM244	"Transmembrane protein 244"	"Evidence at transcript level"
ENSG00000000003	TSPAN6	"Tetraspanin 6"	"Evidence at protein level"
ENSG00000058056	USP13	"Ubiquitin specific peptidase 13"	"Evidence at protein level"
ENSG00000180305	WFDC10A	"WAP four-disulfide core domain 10A"	"Evidence at transcript level"
ENSG00000272899	AC025594.2		"Evidence at transcript level"
ENSG00000168594	ADAM29	"ADAM metallopeptidase domain 29"	"Evidence at protein level"
ENSG00000111863	ADTRP	"Androgen dependent TFPI regulating protein"	"Evidence at protein level"
ENSG00000181652	ATG9B	"Autophagy related 9B"	"Evidence at protein level"
ENSG00000151929	BAG3	"BCL2 associated athanogene 3"	"Evidence at protein level"
ENSG00000178773	CPNE7	"Copine 7"	"Evidence at protein level"
ENSG00000145358	DDIT4L	"DNA damage inducible transcript 4 like"	"Evidence at protein level"
ENSG00000143476	DTL	"Denticleless E3 ubiquitin protein ligase homolog"	"Evidence at protein level"
ENSG00000090554	FLT3LG	"Fms related tyrosine kinase 3 ligand"	"Evidence at protein level"
ENSG00000143167	GPA33	"Glycoprotein A33"	"Evidence at protein level"
ENSG00000111537	IFNG	"Interferon gamma"	"Evidence at protein level"
ENSG00000083457	ITGAE	"Integrin subunit alpha E"	"Evidence at protein level"
ENSG00000168280	KIF5C	"Kinesin family member 5C"	"Evidence at protein level"
ENSG00000132561	MATN2	"Matrilin 2"	"Evidence at protein level"
ENSG00000117122	MFAP2	"Microfibril associated protein 2"	"Evidence at protein level"
ENSG00000107281	NPDC1	"Neural proliferation, differentiation and control 1"	"Evidence at protein level"
ENSG00000175398	OR10P1	"Olfactory receptor family 10 subfamily P member 1"	"Evidence at transcript level"
ENSG00000077264	PAK3	"P21 (RAC1) activated kinase 3"	"Evidence at protein level"
ENSG00000229474	PATL2	"PAT1 homolog 2"	"Evidence at protein level"
ENSG00000262576	PCDHGA4	"Protocadherin gamma subfamily A, 4"	"Evidence at protein level"
ENSG00000139200	PIANP	"PILR alpha associated neural protein"	"Evidence at protein level"
ENSG00000164611	PTTG1	"Pituitary tumor-transforming 1"	"Evidence at protein level"
ENSG00000117602	RCAN3	"RCAN family member 3"	"Evidence at protein level"
ENSG00000180245	RRH	"Retinal pigment epithelium-derived rhodopsin homolog"	"Evidence at protein level"
ENSG00000160307	S100B	"S100 calcium binding protein B"	"Evidence at protein level"
ENSG00000167780	SOAT2	"Sterol O-acyltransferase 2"	"Evidence at protein level"
ENSG00000136854	STXBP1	"Syntaxin binding protein 1"	"Evidence at protein level"
ENSG00000227868	TEX46	"Testis expressed 46"	"Evidence at protein level"
ENSG00000115112	TFCP2L1	"Transcription factor CP2 like 1"	"Evidence at protein level"
ENSG00000196407	THEM5	"Thioesterase superfamily member 5"	"Evidence at protein level"
ENSG00000178233	TMEM151B	"Transmembrane protein 151B"	"Evidence at protein level"
ENSG00000160183	TMPRSS3	"Transmembrane serine protease 3"	"Evidence at protein level"
ENSG00000114854	TNNC1	"Troponin C1, slow skeletal and cardiac type"	"Evidence at protein level"
ENSG00000131746	TNS4	"Tensin 4"	"Evidence at protein level"
ENSG00000185880	TRIM69	"Tripartite motif containing 69"	"Evidence at protein level"
ENSG00000131015	ULBP2	"UL16 binding protein 2"	"Evidence at protein level"
ENSG00000131019	ULBP3	"UL16 binding protein 3"	"Evidence at protein level"
ENSG00000168634	WFDC13	"WAP four-disulfide core domain 13"	"Evidence at transcript level"
ENSG00000165244	ZNF367	"Zinc finger protein 367"	"Evidence at protein level"
ENSG00000249590	AC004832.3		"Evidence at transcript level"
ENSG00000205336	ADGRG1	"Adhesion G protein-coupled receptor G1"	"Evidence at protein level"
ENSG00000105409	ATP1A3	"ATPase Na+/K+ transporting subunit alpha 3"	"Evidence at protein level"
ENSG00000166681	BEX3	"Brain expressed X-linked 3"	"Evidence at protein level"
ENSG00000089685	BIRC5	"Baculoviral IAP repeat containing 5"	"Evidence at protein level"
ENSG00000176155	CCDC57	"Coiled-coil domain containing 57"	"Evidence at protein level"
ENSG00000157456	CCNB2	"Cyclin B2"	"Evidence at protein level"
ENSG00000178562	CD28	"CD28 molecule"	"Evidence at protein level"
ENSG00000104827	CGB3	"Chorionic gonadotropin beta subunit 3"	"Evidence at protein level"
ENSG00000149554	CHEK1	"Checkpoint kinase 1"	"Evidence at protein level"
ENSG00000119946	CNNM1	"Cyclin and CBS domain divalent metal cation transport mediator 1"	"Evidence at protein level"
ENSG00000172215	CXCR6	"C-X-C motif chemokine receptor 6"	"Evidence at transcript level"
ENSG00000126787	DLGAP5	"DLG associated protein 5"	"Evidence at protein level"
ENSG00000256453	DND1	"DND microRNA-mediated repression inhibitor 1"	"Evidence at protein level"
ENSG00000151577	DRD3	"Dopamine receptor D3"	"Evidence at protein level"
ENSG00000197057	DTHD1	"Death domain containing 1"	"Evidence at transcript level"
ENSG00000112796	ENPP5	"Ectonucleotide pyrophosphatase/phosphodiesterase 5 (putative)"	"Evidence at protein level"
ENSG00000183662	FAM19A1	"Family with sequence similarity 19 member A1, C-C motif chemokine like"	"Evidence at protein level"
ENSG00000143127	ITGA10	"Integrin subunit alpha 10"	"Evidence at protein level"
ENSG00000071282	LMCD1	"LIM and cysteine rich domains 1"	"Evidence at protein level"
ENSG00000185090	MANEAL	"Mannosidase endo-alpha like"	"Evidence at protein level"
ENSG00000069535	MAOB	"Monoamine oxidase B"	"Evidence at protein level"
ENSG00000173269	MMRN2	"Multimerin 2"	"Evidence at protein level"
ENSG00000133030	MPRIP	"Myosin phosphatase Rho interacting protein"	"Evidence at protein level"
ENSG00000151623	NR3C2	"Nuclear receptor subfamily 3 group C member 2"	"Evidence at protein level"
ENSG00000156453	PCDH1	"Protocadherin 1"	"Evidence at protein level"
ENSG00000100100	PIK3IP1	"Phosphoinositide-3-kinase interacting protein 1"	"Evidence at protein level"
ENSG00000115896	PLCL1	"Phospholipase C like 1 (inactive)"	"Evidence at protein level"
ENSG00000177380	PPFIA3	"PTPRF interacting protein alpha 3"	"Evidence at protein level"
ENSG00000198729	PPP1R14C	"Protein phosphatase 1 regulatory inhibitor subunit 14C"	"Evidence at protein level"
ENSG00000158106	RHPN1	"Rhophilin Rho GTPase binding protein 1"	"Evidence at protein level"
ENSG00000169071	ROR2	"Receptor tyrosine kinase like orphan receptor 2"	"Evidence at protein level"
ENSG00000171848	RRM2	"Ribonucleotide reductase regulatory subunit M2"	"Evidence at protein level"
ENSG00000089012	SIRPG	"Signal regulatory protein gamma"	"Evidence at protein level"
ENSG00000214338	SOGA3	"SOGA family member 3"	"Evidence at protein level"
ENSG00000157216	SSBP3	"Single stranded DNA binding protein 3"	"Evidence at protein level"
ENSG00000197457	STMN3	"Stathmin 3"	"Evidence at protein level"
ENSG00000106089	STX1A	"Syntaxin 1A"	"Evidence at protein level"
ENSG00000137501	SYTL2	"Synaptotagmin like 2"	"Evidence at protein level"
ENSG00000173991	TCAP	Titin-cap	"Evidence at protein level"
ENSG00000159648	TEPP	"Testis, prostate and placenta expressed"	"Evidence at protein level"
ENSG00000105289	TJP3	"Tight junction protein 3"	"Evidence at protein level"
ENSG00000099282	TSPAN15	"Tetraspanin 15"	"Evidence at protein level"
ENSG00000049247	UTS2	"Urotensin 2"	"Evidence at protein level"
ENSG00000174460	ZCCHC12	"Zinc finger CCHC-type containing 12"	"Evidence at protein level"
ENSG00000196946	ZNF705A	"Zinc finger protein 705A"	"Evidence at transcript level"
ENSG00000273217	AC008695.1		"Evidence at transcript level"
ENSG00000166313	APBB1	"Amyloid beta precursor protein binding family B member 1"	"Evidence at protein level"
ENSG00000178999	AURKB	"Aurora kinase B"	"Evidence at protein level"
ENSG00000156127	BATF	"Basic leucine zipper ATF-like transcription factor"	"Evidence at protein level"
ENSG00000173068	BNC2	"Basonuclin 2"	"Evidence at protein level"
ENSG00000149260	CAPN5	"Calpain 5"	"Evidence at protein level"
ENSG00000255221	CARD17	"Caspase recruitment domain family member 17"	"Evidence at protein level"
ENSG00000205212	CCDC144NL	"Coiled-coil domain containing 144 family, N-terminal like"	"Evidence at transcript level"
ENSG00000241322	CDRT1	"CMT1A duplicated region transcript 1"	"Evidence at transcript level"
ENSG00000108821	COL1A1	"Collagen type I alpha 1 chain"	"Evidence at protein level"
ENSG00000175874	CREG2	"Cellular repressor of E1A stimulated genes 2"	"Evidence at protein level"
ENSG00000225932	CTAGE4	"CTAGE family member 4"	"Evidence at protein level"
ENSG00000151065	DCP1B	"Decapping mRNA 1B"	"Evidence at protein level"
ENSG00000162733	DDR2	"Discoidin domain receptor tyrosine kinase 2"	"Evidence at protein level"
ENSG00000171451	DSEL	"Dermatan sulfate epimerase-like"	"Evidence at protein level"
ENSG00000111266	DUSP16	"Dual specificity phosphatase 16"	"Evidence at protein level"
ENSG00000135476	ESPL1	"Extra spindle pole bodies like 1, separase"	"Evidence at protein level"
ENSG00000006468	ETV1	"ETS variant 1"	"Evidence at protein level"
ENSG00000196666	FAM180B	"Family with sequence similarity 180 member B"	"Evidence at transcript level"
ENSG00000141665	FBXO15	"F-box protein 15"	"Evidence at protein level"
ENSG00000180875	GREM2	"Gremlin 2, DAN family BMP antagonist"	"Evidence at protein level"
ENSG00000204928	GRXCR2	"Glutaredoxin and cysteine rich domain containing 2"	"Evidence at transcript level"
ENSG00000124196	GTSF1L	"Gametocyte specific factor 1 like"	"Evidence at protein level"
ENSG00000140511	HAPLN3	"Hyaluronan and proteoglycan link protein 3"	"Evidence at protein level"
ENSG00000105707	HPN	Hepsin	"Evidence at protein level"
ENSG00000134352	IL6ST	"Interleukin 6 signal transducer"	"Evidence at protein level"
ENSG00000198885	ITPRIPL1	"ITPRIP like 1"	"Evidence at protein level"
ENSG00000160145	KALRN	"Kalirin RhoGEF kinase"	"Evidence at protein level"
ENSG00000135519	KCNH3	"Potassium voltage-gated channel subfamily H member 3"	"Evidence at protein level"
ENSG00000090889	KIF4A	"Kinesin family member 4A"	"Evidence at protein level"
ENSG00000126259	KIRREL2	"Kirre like nephrin family adhesion molecule 2"	"Evidence at protein level"
ENSG00000138795	LEF1	"Lymphoid enhancer binding factor 1"	"Evidence at protein level"
ENSG00000006659	LGALS14	"Galectin 14"	"Evidence at protein level"
ENSG00000136153	LMO7	"LIM domain 7"	"Evidence at protein level"
ENSG00000126243	LRFN3	"Leucine rich repeat and fibronectin type III domain containing 3"	"Evidence at protein level"
ENSG00000117643	MAN1C1	"Mannosidase alpha class 1C member 1"	"Evidence at protein level"
ENSG00000180834	MAP6D1	"MAP6 domain containing 1"	"Evidence at protein level"
ENSG00000173838	MARCH10	"Membrane associated ring-CH-type finger 10"	"Evidence at protein level"
ENSG00000165304	MELK	"Maternal embryonic leucine zipper kinase"	"Evidence at protein level"
ENSG00000080561	MID2	"Midline 2"	"Evidence at protein level"
ENSG00000271447	MMP28	"Matrix metallopeptidase 28"	"Evidence at protein level"
ENSG00000071909	MYO3B	"Myosin IIIB"	"Evidence at protein level"
ENSG00000158747	NBL1	"Neuroblastoma 1, DAN family BMP antagonist"	"Evidence at protein level"
ENSG00000109805	NCAPG	"Non-SMC condensin I complex subunit G"	"Evidence at protein level"
ENSG00000164867	NOS3	"Nitric oxide synthase 3"	"Evidence at protein level"
ENSG00000154814	OXNAD1	"Oxidoreductase NAD binding domain containing 1"	"Evidence at protein level"
ENSG00000234068	PAGE2	"PAGE family member 2"	"Evidence at protein level"
ENSG00000116117	PARD3B	"Par-3 family cell polarity regulator beta"	"Evidence at protein level"
ENSG00000166803	PCLAF	"PCNA clamp associated factor"	"Evidence at protein level"
ENSG00000164530	PI16	"Peptidase inhibitor 16"	"Evidence at protein level"
ENSG00000140451	PIF1	"PIF1 5'-to-3' DNA helicase"	"Evidence at protein level"
ENSG00000127564	PKMYT1	"Protein kinase, membrane associated tyrosine/threonine 1"	"Evidence at protein level"
ENSG00000144837	PLA1A	"Phospholipase A1 member A"	"Evidence at protein level"
ENSG00000021300	PLEKHB1	"Pleckstrin homology domain containing B1"	"Evidence at protein level"
ENSG00000166851	PLK1	"Polo like kinase 1"	"Evidence at protein level"
ENSG00000162877	PM20D1	"Peptidase M20 domain containing 1"	"Evidence at protein level"
ENSG00000204851	PNMA8B	"PNMA family member 8B"	"Evidence at protein level"
ENSG00000183324	REC114	"REC114 meiotic recombination protein"	"Evidence at protein level"
ENSG00000153165	RGPD3	"RANBP2-like and GRIP domain containing 3"	"Evidence at protein level"
ENSG00000196862	RGPD4	"RANBP2-like and GRIP domain containing 4"	"Evidence at protein level"
ENSG00000105784	RUNDC3B	"RUN domain containing 3B"	"Evidence at protein level"
ENSG00000169906	S100G	"S100 calcium binding protein G"	"Evidence at protein level"
ENSG00000155875	SAXO1	"Stabilizer of axonemal microtubules 1"	"Evidence at protein level"
ENSG00000120057	SFRP5	"Secreted frizzled related protein 5"	"Evidence at protein level"
ENSG00000112394	SLC16A10	"Solute carrier family 16 member 10"	"Evidence at protein level"
ENSG00000172940	SLC22A13	"Solute carrier family 22 member 13"	"Evidence at protein level"
ENSG00000080493	SLC4A4	"Solute carrier family 4 member 4"	"Evidence at protein level"
ENSG00000196517	SLC6A9	"Solute carrier family 6 member 9"	"Evidence at protein level"
ENSG00000159674	SPON2	"Spondin 2"	"Evidence at protein level"
ENSG00000212124	TAS2R19	"Taste 2 receptor member 19"	"Evidence at transcript level"
ENSG00000204219	TCEA3	"Transcription elongation factor A3"	"Evidence at protein level"
ENSG00000131634	TMEM204	"Transmembrane protein 204"	"Evidence at transcript level"
ENSG00000189350	TOGARAM2	"TOG array regulator of axonemal microtubules 2"	"Evidence at protein level"
ENSG00000135451	TROAP	"Trophinin associated protein"	"Evidence at protein level"
ENSG00000165409	TSHR	"Thyroid stimulating hormone receptor"	"Evidence at protein level"
ENSG00000166793	YPEL4	"Yippee like 4"	"Evidence at transcript level"
ENSG00000157077	ZFYVE9	"Zinc finger FYVE-type containing 9"	"Evidence at protein level"
ENSG00000141579	ZNF750	"Zinc finger protein 750"	"Evidence at protein level"
ENSG00000122952	ZWINT	"ZW10 interacting kinetochore protein"	"Evidence at protein level"
ENSG00000173208	ABCD2	"ATP binding cassette subfamily D member 2"	"Evidence at protein level"
ENSG00000163995	ABLIM2	"Actin binding LIM protein family member 2"	"Evidence at protein level"
ENSG00000123612	ACVR1C	"Activin A receptor type 1C"	"Evidence at protein level"
ENSG00000034053	APBA2	"Amyloid beta precursor protein binding family A member 2"	"Evidence at protein level"
ENSG00000163093	BBS5	"Bardet-Biedl syndrome 5"	"Evidence at protein level"
ENSG00000176720	BOK	"BOK, BCL2 family apoptosis regulator"	"Evidence at protein level"
ENSG00000166780	C16orf45	"Chromosome 16 open reading frame 45"	"Evidence at protein level"
ENSG00000271503	CCL5	"C-C motif chemokine ligand 5"	"Evidence at protein level"
ENSG00000160791	CCR5	"C-C motif chemokine receptor 5 (gene/pseudogene)"	"Evidence at protein level"
ENSG00000126353	CCR7	"C-C motif chemokine receptor 7"	"Evidence at protein level"
ENSG00000008300	CELSR3	"Cadherin EGF LAG seven-pass G-type receptor 3"	"Evidence at protein level"
ENSG00000174343	CHRNA9	"Cholinergic receptor nicotinic alpha 9 subunit"	"Evidence at protein level"
ENSG00000092009	CMA1	"Chymase 1"	"Evidence at protein level"
ENSG00000141736	ERBB2	"Erb-b2 receptor tyrosine kinase 2"	"Evidence at protein level"
ENSG00000181104	F2R	"Coagulation factor II thrombin receptor"	"Evidence at protein level"
ENSG00000183615	FAM167B	"Family with sequence similarity 167 member B"	"Evidence at protein level"
ENSG00000175229	GAL3ST3	"Galactose-3-O-sulfotransferase 3"	"Evidence at protein level"
ENSG00000166840	GLYATL1	"Glycine-N-acyltransferase like 1"	"Evidence at protein level"
ENSG00000167191	GPRC5B	"G protein-coupled receptor class C group 5 member B"	"Evidence at protein level"
ENSG00000204390	HSPA1L	"Heat shock protein family A (Hsp70) member 1 like"	"Evidence at protein level"
ENSG00000005884	ITGA3	"Integrin subunit alpha 3"	"Evidence at protein level"
ENSG00000197077	KIAA1671	KIAA1671	"Evidence at protein level"
ENSG00000167633	KIR3DL1	"Killer cell immunoglobulin like receptor, three Ig domains and long cytoplasmic tail 1"	"Evidence at protein level"
ENSG00000185915	KLHL34	"Kelch like family member 34"	"Evidence at transcript level"
ENSG00000111716	LDHB	"Lactate dehydrogenase B"	"Evidence at protein level"
ENSG00000179455	MKRN3	"Makorin ring finger protein 3"	"Evidence at protein level"
ENSG00000204475	NCR3	"Natural cytotoxicity triggering receptor 3"	"Evidence at protein level"
ENSG00000188211	NCR3LG1	"Natural killer cell cytotoxicity receptor 3 ligand 1"	"Evidence at protein level"
ENSG00000177707	NECTIN3	"Nectin cell adhesion molecule 3"	"Evidence at protein level"
ENSG00000181322	NME9	"NME/NM23 family member 9"	"Evidence at protein level"
ENSG00000158458	NRG2	"Neuregulin 2"	"Evidence at protein level"
ENSG00000185290	NUPR2	"Nuclear protein 2, transcriptional regulator"	"Evidence at protein level"
ENSG00000167355	OR51B5	"Olfactory receptor family 51 subfamily B member 5"	"Evidence at transcript level"
ENSG00000123360	PDE1B	"Phosphodiesterase 1B"	"Evidence at protein level"
ENSG00000135069	PSAT1	"Phosphoserine aminotransferase 1"	"Evidence at protein level"
ENSG00000146955	RAB19	"RAB19, member RAS oncogene family"	"Evidence at protein level"
ENSG00000085999	RAD54L	"RAD54 like"	"Evidence at protein level"
ENSG00000172575	RASGRP1	"RAS guanyl releasing protein 1"	"Evidence at protein level"
ENSG00000100320	RBFOX2	"RNA binding fox-1 homolog 2"	"Evidence at protein level"
ENSG00000132972	RNF17	"Ring finger protein 17"	"Evidence at protein level"
ENSG00000069667	RORA	"RAR related orphan receptor A"	"Evidence at protein level"
ENSG00000108309	RUNDC3A	"RUN domain containing 3A"	"Evidence at protein level"
ENSG00000125520	SLC2A4RG	"SLC2A4 regulator"	"Evidence at protein level"
ENSG00000115183	TANC1	"Tetratricopeptide repeat, ankyrin repeat and coiled-coil containing 1"	"Evidence at protein level"
ENSG00000173809	TDRD12	"Tudor domain containing 12"	"Evidence at protein level"
ENSG00000278057	TEX28	"Testis expressed 28"	"Evidence at transcript level"
ENSG00000198270	TMEM116	"Transmembrane protein 116"	"Evidence at transcript level"
ENSG00000182107	TMEM30B	"Transmembrane protein 30B"	"Evidence at protein level"
ENSG00000182463	TSHZ2	"Teashirt zinc finger homeobox 2"	"Evidence at protein level"
ENSG00000168234	TTC39C	"Tetratricopeptide repeat domain 39C"	"Evidence at protein level"
ENSG00000197763	TXNRD3	"Thioredoxin reductase 3"	"Evidence at protein level"
ENSG00000101842	VSIG1	"V-set and immunoglobulin domain containing 1"	"Evidence at protein level"
ENSG00000162643	WDR63	"WD repeat domain 63"	"Evidence at protein level"
ENSG00000018408	WWTR1	"WW domain containing transcription regulator 1"	"Evidence at protein level"
ENSG00000181896	ZNF101	"Zinc finger protein 101"	"Evidence at protein level"
